{
  "ClientId": 123123123,
  "BotId": null,
  "Token": "",
  "OwnerIds": [
    435446813835788290
  ],
  "LoLApiKey": "",
  "GoogleApiKey": "",
  "MashapeKey": "",
  "OsuApiKey": "",
  "PatreonAccessToken": "",
  "Db": null,
  "TotalShards": 1
}